Model,Dysk,Ram,LiczbaOcen,Ekran,Ocena
Mac1,512,16,179,39,3
Mac2,128,8,144,40,2
Mac3,256,8,201,39,4.5
Mac4,256,8,185,38,3.5
Mac5,512,12,179,43,4
Mac6,256,16,190,37,4.5
Mac7,256,16,201,39,5
Mac8,256,8,203,39,3
Mac9,1024,16,144,40,1
Mac10,1024,16,170,42,1.5
